\relax 
\@writefile{toc}{\contentsline {section}{\numberline {1}Exercise 1}{1}\protected@file@percent }
\@writefile{toc}{\contentsline {section}{\numberline {2}Exercise 2}{1}\protected@file@percent }
\@writefile{toc}{\contentsline {section}{\numberline {3}Exercise 3}{2}\protected@file@percent }
