PWD /Users/vincent/Desktop/Fall2019/CS546_Parallel_Computing/Homeworks/Homework2
INPUT /usr/local/texlive/2019/texmf.cnf
INPUT /usr/local/texlive/2019/texmf-dist/web2c/texmf.cnf
INPUT /usr/local/texlive/2019/texmf-var/web2c/pdftex/pdflatex.fmt
INPUT CS546_01_Qu_Yi_HW2.tex
OUTPUT CS546_01_Qu_Yi_HW2.log
INPUT /usr/local/texlive/2019/texmf-dist/tex/latex/base/article.cls
INPUT /usr/local/texlive/2019/texmf-dist/tex/latex/base/article.cls
INPUT /usr/local/texlive/2019/texmf-dist/tex/latex/base/size10.clo
INPUT /usr/local/texlive/2019/texmf-dist/tex/latex/base/size10.clo
INPUT /usr/local/texlive/2019/texmf-dist/tex/latex/amsmath/amsmath.sty
INPUT /usr/local/texlive/2019/texmf-dist/tex/latex/amsmath/amsmath.sty
INPUT /usr/local/texlive/2019/texmf-dist/tex/latex/amsmath/amstext.sty
INPUT /usr/local/texlive/2019/texmf-dist/tex/latex/amsmath/amstext.sty
INPUT /usr/local/texlive/2019/texmf-dist/tex/latex/amsmath/amsgen.sty
INPUT /usr/local/texlive/2019/texmf-dist/tex/latex/amsmath/amsgen.sty
INPUT /usr/local/texlive/2019/texmf-dist/tex/latex/amsmath/amsbsy.sty
INPUT /usr/local/texlive/2019/texmf-dist/tex/latex/amsmath/amsbsy.sty
INPUT /usr/local/texlive/2019/texmf-dist/tex/latex/amsmath/amsopn.sty
INPUT /usr/local/texlive/2019/texmf-dist/tex/latex/amsmath/amsopn.sty
INPUT /usr/local/texlive/2019/texmf-dist/tex/latex/graphics/graphicx.sty
INPUT /usr/local/texlive/2019/texmf-dist/tex/latex/graphics/graphicx.sty
INPUT /usr/local/texlive/2019/texmf-dist/tex/latex/graphics/keyval.sty
INPUT /usr/local/texlive/2019/texmf-dist/tex/latex/graphics/keyval.sty
INPUT /usr/local/texlive/2019/texmf-dist/tex/latex/graphics/graphics.sty
INPUT /usr/local/texlive/2019/texmf-dist/tex/latex/graphics/graphics.sty
INPUT /usr/local/texlive/2019/texmf-dist/tex/latex/graphics/trig.sty
INPUT /usr/local/texlive/2019/texmf-dist/tex/latex/graphics/trig.sty
INPUT /usr/local/texlive/2019/texmf-dist/tex/latex/graphics-cfg/graphics.cfg
INPUT /usr/local/texlive/2019/texmf-dist/tex/latex/graphics-cfg/graphics.cfg
INPUT /usr/local/texlive/2019/texmf-dist/tex/latex/graphics-def/pdftex.def
INPUT /usr/local/texlive/2019/texmf-dist/tex/latex/graphics-def/pdftex.def
INPUT CS546_01_Qu_Yi_HW2.aux
INPUT CS546_01_Qu_Yi_HW2.aux
OUTPUT CS546_01_Qu_Yi_HW2.aux
INPUT /usr/local/texlive/2019/texmf-dist/tex/context/base/mkii/supp-pdf.mkii
INPUT /usr/local/texlive/2019/texmf-dist/tex/context/base/mkii/supp-pdf.mkii
INPUT /usr/local/texlive/2019/texmf-dist/tex/latex/oberdiek/epstopdf-base.sty
INPUT /usr/local/texlive/2019/texmf-dist/tex/latex/oberdiek/epstopdf-base.sty
INPUT /usr/local/texlive/2019/texmf-dist/tex/generic/oberdiek/infwarerr.sty
INPUT /usr/local/texlive/2019/texmf-dist/tex/generic/oberdiek/infwarerr.sty
INPUT /usr/local/texlive/2019/texmf-dist/tex/latex/oberdiek/grfext.sty
INPUT /usr/local/texlive/2019/texmf-dist/tex/latex/oberdiek/grfext.sty
INPUT /usr/local/texlive/2019/texmf-dist/tex/generic/oberdiek/kvdefinekeys.sty
INPUT /usr/local/texlive/2019/texmf-dist/tex/generic/oberdiek/kvdefinekeys.sty
INPUT /usr/local/texlive/2019/texmf-dist/tex/generic/oberdiek/ltxcmds.sty
INPUT /usr/local/texlive/2019/texmf-dist/tex/generic/oberdiek/ltxcmds.sty
INPUT /usr/local/texlive/2019/texmf-dist/tex/latex/oberdiek/kvoptions.sty
INPUT /usr/local/texlive/2019/texmf-dist/tex/latex/oberdiek/kvoptions.sty
INPUT /usr/local/texlive/2019/texmf-dist/tex/generic/oberdiek/kvsetkeys.sty
INPUT /usr/local/texlive/2019/texmf-dist/tex/generic/oberdiek/kvsetkeys.sty
INPUT /usr/local/texlive/2019/texmf-dist/tex/generic/oberdiek/etexcmds.sty
INPUT /usr/local/texlive/2019/texmf-dist/tex/generic/oberdiek/etexcmds.sty
INPUT /usr/local/texlive/2019/texmf-dist/tex/generic/oberdiek/ifluatex.sty
INPUT /usr/local/texlive/2019/texmf-dist/tex/generic/oberdiek/ifluatex.sty
INPUT /usr/local/texlive/2019/texmf-dist/tex/generic/oberdiek/pdftexcmds.sty
INPUT /usr/local/texlive/2019/texmf-dist/tex/generic/oberdiek/pdftexcmds.sty
INPUT /usr/local/texlive/2019/texmf-dist/tex/generic/oberdiek/ifpdf.sty
INPUT /usr/local/texlive/2019/texmf-dist/tex/generic/oberdiek/ifpdf.sty
INPUT /usr/local/texlive/2019/texmf-dist/tex/latex/latexconfig/epstopdf-sys.cfg
INPUT /usr/local/texlive/2019/texmf-dist/tex/latex/latexconfig/epstopdf-sys.cfg
INPUT /usr/local/texlive/2019/texmf-dist/fonts/map/fontname/texfonts.map
INPUT /usr/local/texlive/2019/texmf-dist/fonts/tfm/public/cm/cmr17.tfm
INPUT /usr/local/texlive/2019/texmf-dist/fonts/tfm/public/cm/cmr12.tfm
INPUT /usr/local/texlive/2019/texmf-dist/fonts/tfm/public/cm/cmr8.tfm
INPUT /usr/local/texlive/2019/texmf-dist/fonts/tfm/public/cm/cmr6.tfm
INPUT /usr/local/texlive/2019/texmf-dist/fonts/tfm/public/cm/cmmi12.tfm
INPUT /usr/local/texlive/2019/texmf-dist/fonts/tfm/public/cm/cmmi8.tfm
INPUT /usr/local/texlive/2019/texmf-dist/fonts/tfm/public/cm/cmmi6.tfm
INPUT /usr/local/texlive/2019/texmf-dist/fonts/tfm/public/cm/cmsy10.tfm
INPUT /usr/local/texlive/2019/texmf-dist/fonts/tfm/public/cm/cmsy8.tfm
INPUT /usr/local/texlive/2019/texmf-dist/fonts/tfm/public/cm/cmsy6.tfm
INPUT /usr/local/texlive/2019/texmf-dist/fonts/tfm/public/cm/cmex10.tfm
INPUT /usr/local/texlive/2019/texmf-dist/fonts/tfm/public/amsfonts/cmextra/cmex8.tfm
INPUT /usr/local/texlive/2019/texmf-dist/fonts/tfm/public/amsfonts/cmextra/cmex7.tfm
INPUT /usr/local/texlive/2019/texmf-dist/fonts/tfm/public/cm/cmr12.tfm
INPUT /usr/local/texlive/2019/texmf-dist/fonts/tfm/public/cm/cmbx12.tfm
INPUT /usr/local/texlive/2019/texmf-dist/fonts/tfm/public/amsfonts/cmextra/cmex7.tfm
INPUT /usr/local/texlive/2019/texmf-dist/fonts/tfm/public/amsfonts/cmextra/cmex7.tfm
OUTPUT CS546_01_Qu_Yi_HW2.pdf
INPUT /usr/local/texlive/2019/texmf-var/fonts/map/pdftex/updmap/pdftex.map
INPUT 4processors.PNG
INPUT ./4processors.PNG
INPUT ./4processors.PNG
INPUT 3processors.PNG
INPUT ./3processors.PNG
INPUT ./3processors.PNG
INPUT CS546_01_Qu_Yi_HW2.aux
INPUT /usr/local/texlive/2019/texmf-dist/fonts/type1/public/amsfonts/cm/cmbx12.pfb
INPUT /usr/local/texlive/2019/texmf-dist/fonts/type1/public/amsfonts/cm/cmex10.pfb
INPUT /usr/local/texlive/2019/texmf-dist/fonts/type1/public/amsfonts/cm/cmmi10.pfb
INPUT /usr/local/texlive/2019/texmf-dist/fonts/type1/public/amsfonts/cm/cmmi7.pfb
INPUT /usr/local/texlive/2019/texmf-dist/fonts/type1/public/amsfonts/cm/cmr10.pfb
INPUT /usr/local/texlive/2019/texmf-dist/fonts/type1/public/amsfonts/cm/cmr12.pfb
INPUT /usr/local/texlive/2019/texmf-dist/fonts/type1/public/amsfonts/cm/cmr17.pfb
INPUT /usr/local/texlive/2019/texmf-dist/fonts/type1/public/amsfonts/cm/cmr7.pfb
INPUT /usr/local/texlive/2019/texmf-dist/fonts/type1/public/amsfonts/cm/cmsy10.pfb
INPUT /usr/local/texlive/2019/texmf-dist/fonts/type1/public/amsfonts/cm/cmsy7.pfb
