\relax 
\@writefile{toc}{\contentsline {section}{\numberline {1}Question 1}{1}\protected@file@percent }
\@writefile{toc}{\contentsline {section}{\numberline {2}Question 2}{1}\protected@file@percent }
\@writefile{toc}{\contentsline {section}{\numberline {3}Question 3}{1}\protected@file@percent }
\@writefile{toc}{\contentsline {section}{\numberline {4}Question 4}{1}\protected@file@percent }
\@writefile{toc}{\contentsline {section}{\numberline {5}Question 5}{2}\protected@file@percent }
\@writefile{lof}{\contentsline {figure}{\numberline {1}{\ignorespaces 4 processors mapping.}}{2}\protected@file@percent }
\@writefile{lof}{\contentsline {figure}{\numberline {2}{\ignorespaces 3 processors mapping.}}{3}\protected@file@percent }
\@writefile{toc}{\contentsline {section}{\numberline {6}Question 6}{3}\protected@file@percent }
\@writefile{toc}{\contentsline {section}{\numberline {7}Question 7}{4}\protected@file@percent }
\@writefile{toc}{\contentsline {section}{\numberline {8}Question 8}{4}\protected@file@percent }
