\relax 
\@writefile{toc}{\contentsline {section}{\numberline {1}Question 1}{1}\protected@file@percent }
\@writefile{toc}{\contentsline {section}{\numberline {2}Question 2}{1}\protected@file@percent }
\@writefile{toc}{\contentsline {section}{\numberline {3}Question 3}{1}\protected@file@percent }
\@writefile{toc}{\contentsline {section}{\numberline {4}Question 4}{1}\protected@file@percent }
\@writefile{toc}{\contentsline {section}{\numberline {5}Question 5}{1}\protected@file@percent }
\@writefile{toc}{\contentsline {section}{\numberline {6}Question 6}{1}\protected@file@percent }
\@writefile{toc}{\contentsline {section}{\numberline {7}Question 7}{1}\protected@file@percent }
\@writefile{toc}{\contentsline {section}{\numberline {8}Question 8}{1}\protected@file@percent }
\@writefile{toc}{\contentsline {section}{\numberline {9}Question 9}{1}\protected@file@percent }
\@writefile{toc}{\contentsline {section}{\numberline {10}Question 10}{1}\protected@file@percent }
\@writefile{toc}{\contentsline {section}{\numberline {11}Question 11}{1}\protected@file@percent }
\@writefile{toc}{\contentsline {section}{\numberline {12}Question 12}{1}\protected@file@percent }
\@writefile{toc}{\contentsline {section}{\numberline {13}Question 13}{1}\protected@file@percent }
